{
    "action-inputs": [
        {
            "allow-multiple": false,
            "available-all-servers": false,
            "description": null,
            "field-dependency-controlling-set": [],
            "field-dependency-dependent-set": [],
            "global-options": [],
            "hide-if-default-value": false,
            "label": "Volume Name",
            "name": "volume_name",
            "relevant-osfamilies": [],
            "required": true,
            "show-as-attribute": false,
            "show-on-servers": false,
            "type": "STR"
        },
        {
            "allow-multiple": false,
            "available-all-servers": false,
            "description": "",
            "field-dependency-controlling-set": [],
            "field-dependency-dependent-set": [],
            "global-options": [],
            "hide-if-default-value": false,
            "label": "Volume Size (in GB)",
            "maximum": "1024.00",
            "minimum": "50.00",
            "name": "volume_size",
            "relevant-osfamilies": [],
            "required": true,
            "show-as-attribute": false,
            "show-on-servers": false,
            "type": "INT"
        }
    ],
    "description": "fake pure storage order plug-in",
    "environments": [],
    "groups": [],
    "max-retries": 0,
    "name": "create pure storage",
    "resource-technologies": [],
    "script-filename": "cb_plugin_1556804679251179_JeZA2cg.py",
    "shared": "False",
    "target-os-families": [],
    "type": "CloudBolt Plug-in"
}